CP 3 – Maimoona’s Website
…
The goal of cross-validation is to test the model’s ability to predict new data that was not used in estimating it, in order to flag problems like overfitting or selection bias and to give insight into how the model will generalize to an independent data set. Overﬁtting occurs when a model reads too much into chance features and essentially memorizes features of the data used to build it, thus reducing reliability and the ability to generalize to underrepresented populations.

What linear models are you considering based on your research question? Pick at least two models to compare.

For example, in Lab 7, we first considered the following model for black cherry trees:

E[height | diameter] = β0+ β1(diameter)

Explain how you divided your data into its test set and training set.

breastcancer %>% 
  select(perimeter_mean, texture_mean, smoothness_mean, concavity_mean, diagnosis)

# A tibble: 569 × 5
   perimeter_mean texture_mean smoothness_mean concavity_mean diagnosis
            <dbl>        <dbl>           <dbl>          <dbl> <chr>    
 1          123.          10.4          0.118          0.300  M        
 2          133.          17.8          0.0847         0.0869 M        
 3          130           21.2          0.110          0.197  M        
 4           77.6         20.4          0.142          0.241  M        
 5          135.          14.3          0.100          0.198  M        
 6           82.6         15.7          0.128          0.158  M        
 7          120.          20.0          0.0946         0.113  M        
 8           90.2         20.8          0.119          0.0937 M        
 9           87.5         21.8          0.127          0.186  M        
10           84.0         24.0          0.119          0.227  M        
# ℹ 559 more rows
…
